{
	"info": {
		"_postman_id": "5fe9e425-9860-4da0-b82c-927ce3ffc34f",
		"name": "ClimateConserveTesting",
		"schema": "https://schema.getpostman.com/json/collection/v2.1.0/collection.json"
	},
	"item": [
		{
			"name": "GetAllCountriesTest",
			"event": [
				{
					"listen": "test",
					"script": {
						"exec": [
							"",
							"pm.test(\"Status code is 200\", function () {",
							"    pm.response.to.have.status(200);",
							"});",
							"",
							"pm.test(\"Body contains area\", function () {",
							"    pm.expect(pm.response.text()).to.include(\"area\");",
							"});",
							"",
							"pm.test(\"Body contains capital\", function () {",
							"    pm.expect(pm.response.text()).to.include(\"capital\");",
							"});",
							"",
							"pm.test(\"Body contains flag\", function () {",
							"    pm.expect(pm.response.text()).to.include(\"flag\");",
							"});",
							"",
							"pm.test(\"Body contains gdp\", function () {",
							"    pm.expect(pm.response.text()).to.include(\"gdp\");",
							"});",
							"",
							"pm.test(\"Body contains gini\", function () {",
							"    pm.expect(pm.response.text()).to.include(\"gini\");",
							"});",
							"",
							"pm.test(\"Body contains id\", function () {",
							"    pm.expect(pm.response.text()).to.include(\"id\");",
							"});",
							"",
							"pm.test(\"Body contains income_level\", function () {",
							"    pm.expect(pm.response.text()).to.include(\"income_level\");",
							"});",
							"",
							"pm.test(\"Body contains latitude\", function () {",
							"    pm.expect(pm.response.text()).to.include(\"latitude\");",
							"});",
							"",
							"pm.test(\"Body contains longitude\", function () {",
							"    pm.expect(pm.response.text()).to.include(\"longitude\");",
							"});",
							"",
							"pm.test(\"Body contains name\", function () {",
							"    pm.expect(pm.response.text()).to.include(\"name\");",
							"});",
							"",
							"pm.test(\"Body contains population\", function () {",
							"    pm.expect(pm.response.text()).to.include(\"population\");",
							"});",
							"",
							"pm.test(\"Body contains region\", function () {",
							"    pm.expect(pm.response.text()).to.include(\"region\");",
							"});"
						],
						"type": "text/javascript"
					}
				}
			],
			"request": {
				"method": "GET",
				"header": [],
				"url": {
					"raw": "https://www.climateconserve.me/api/countries",
					"protocol": "https",
					"host": [
						"www",
						"climateconserve",
						"me"
					],
					"path": [
						"api",
						"countries"
					]
				}
			},
			"response": []
		},
		{
			"name": "GetCountryByIDTest",
			"event": [
				{
					"listen": "test",
					"script": {
						"exec": [
							"",
							"pm.test(\"Status code is 200\", function () {",
							"    pm.response.to.have.status(200);",
							"});",
							"",
							"pm.test(\"Body contains area\", function () {",
							"    pm.expect(pm.response.text()).to.include(\"area\");",
							"});",
							"",
							"pm.test(\"Body contains capital\", function () {",
							"    pm.expect(pm.response.text()).to.include(\"capital\");",
							"});",
							"",
							"pm.test(\"Body contains flag\", function () {",
							"    pm.expect(pm.response.text()).to.include(\"flag\");",
							"});",
							"",
							"pm.test(\"Body contains gdp\", function () {",
							"    pm.expect(pm.response.text()).to.include(\"gdp\");",
							"});",
							"",
							"pm.test(\"Body contains gini\", function () {",
							"    pm.expect(pm.response.text()).to.include(\"gini\");",
							"});",
							"",
							"pm.test(\"Body contains id\", function () {",
							"    pm.expect(pm.response.text()).to.include(\"id\");",
							"});",
							"",
							"pm.test(\"Body contains income_level\", function () {",
							"    pm.expect(pm.response.text()).to.include(\"income_level\");",
							"});",
							"",
							"pm.test(\"Body contains latitude\", function () {",
							"    pm.expect(pm.response.text()).to.include(\"latitude\");",
							"});",
							"",
							"pm.test(\"Body contains longitude\", function () {",
							"    pm.expect(pm.response.text()).to.include(\"longitude\");",
							"});",
							"",
							"pm.test(\"Body contains name\", function () {",
							"    pm.expect(pm.response.text()).to.include(\"name\");",
							"});",
							"",
							"pm.test(\"Body contains population\", function () {",
							"    pm.expect(pm.response.text()).to.include(\"population\");",
							"});",
							"",
							"pm.test(\"Body contains region\", function () {",
							"    pm.expect(pm.response.text()).to.include(\"region\");",
							"});",
							" ",
							"let jsonData = pm.response.json();",
							"",
							"pm.test(\"Testing ID correctness\", function () {",
							"    pm.expect(jsonData.id).to.eql(59);",
							"});"
						],
						"type": "text/javascript"
					}
				}
			],
			"request": {
				"method": "GET",
				"header": [],
				"url": {
					"raw": "https://www.climateconserve.me/api/country/59",
					"protocol": "https",
					"host": [
						"www",
						"climateconserve",
						"me"
					],
					"path": [
						"api",
						"country",
						"59"
					]
				}
			},
			"response": []
		},
		{
			"name": "GetAllClimateReportsTest",
			"event": [
				{
					"listen": "test",
					"script": {
						"exec": [
							"pm.test(\"Status code is 200\", function () {",
							"    pm.response.to.have.status(200);",
							"});",
							"",
							"pm.test(\"Contains aqi\", function () {",
							"    pm.expect(pm.response.text()).to.include(\"aqi\");",
							"});",
							"",
							"pm.test(\"Contains ch4\", function () {",
							"    pm.expect(pm.response.text()).to.include(\"ch4\");",
							"});",
							"",
							"pm.test(\"Contains climate zone\", function () {",
							"    pm.expect(pm.response.text()).to.include(\"climate_zone\");",
							"});",
							"",
							"pm.test(\"Contains co2\", function () {",
							"    pm.expect(pm.response.text()).to.include(\"co2\");",
							"});",
							"",
							"pm.test(\"Contains ghg\", function () {",
							"    pm.expect(pm.response.text()).to.include(\"ghg\");",
							"});",
							"",
							"pm.test(\"Contains id\", function () {",
							"    pm.expect(pm.response.text()).to.include(\"id\");",
							"});",
							"",
							"pm.test(\"Contains name\", function () {",
							"    pm.expect(pm.response.text()).to.include(\"name\");",
							"});",
							"",
							"pm.test(\"Contains no2\", function () {",
							"    pm.expect(pm.response.text()).to.include(\"no2\");",
							"});",
							"",
							"pm.test(\"Contains pm10\", function () {",
							"    pm.expect(pm.response.text()).to.include(\"pm10\");",
							"});",
							"",
							"pm.test(\"Contains pm25\", function () {",
							"    pm.expect(pm.response.text()).to.include(\"pm25\");",
							"});",
							"",
							"pm.test(\"Contains rainfall\", function () {",
							"    pm.expect(pm.response.text()).to.include(\"rainfall\");",
							"});",
							"",
							"pm.test(\"Contains temperature\", function () {",
							"    pm.expect(pm.response.text()).to.include(\"temperature\");",
							"});",
							"",
							"pm.test(\"Contains 1990\", function () {",
							"    pm.expect(pm.response.text()).to.include(\"1990\");",
							"});",
							"",
							"pm.test(\"Contains 1991\", function () {",
							"    pm.expect(pm.response.text()).to.include(\"1991\");",
							"});",
							"",
							"pm.test(\"Contains 1992\", function () {",
							"    pm.expect(pm.response.text()).to.include(\"1992\");",
							"});",
							"",
							"pm.test(\"Contains 1993\", function () {",
							"    pm.expect(pm.response.text()).to.include(\"1993\");",
							"});",
							"",
							"pm.test(\"Contains 1994\", function () {",
							"    pm.expect(pm.response.text()).to.include(\"1994\");",
							"});",
							"",
							"pm.test(\"Contains 1995\", function () {",
							"    pm.expect(pm.response.text()).to.include(\"1995\");",
							"});",
							"",
							"pm.test(\"Contains 1996\", function () {",
							"    pm.expect(pm.response.text()).to.include(\"1996\");",
							"});",
							"",
							"pm.test(\"Contains 1997\", function () {",
							"    pm.expect(pm.response.text()).to.include(\"1997\");",
							"});",
							"",
							"pm.test(\"Contains 1998\", function () {",
							"    pm.expect(pm.response.text()).to.include(\"1998\");",
							"});",
							"",
							"pm.test(\"Contains 1999\", function () {",
							"    pm.expect(pm.response.text()).to.include(\"1999\");",
							"});",
							"",
							"pm.test(\"Contains 2000\", function () {",
							"    pm.expect(pm.response.text()).to.include(\"2000\");",
							"});",
							"",
							"pm.test(\"Contains 2001\", function () {",
							"    pm.expect(pm.response.text()).to.include(\"2001\");",
							"});",
							"",
							"pm.test(\"Contains 2002\", function () {",
							"    pm.expect(pm.response.text()).to.include(\"2002\");",
							"});",
							"",
							"pm.test(\"Contains 2003\", function () {",
							"    pm.expect(pm.response.text()).to.include(\"2003\");",
							"});",
							"",
							"pm.test(\"Contains 2004\", function () {",
							"    pm.expect(pm.response.text()).to.include(\"2004\");",
							"});",
							"",
							"pm.test(\"Contains 2005\", function () {",
							"    pm.expect(pm.response.text()).to.include(\"2005\");",
							"});",
							"",
							"pm.test(\"Contains 2006\", function () {",
							"    pm.expect(pm.response.text()).to.include(\"2006\");",
							"});",
							"",
							"pm.test(\"Contains 2007\", function () {",
							"    pm.expect(pm.response.text()).to.include(\"2007\");",
							"});",
							"",
							"pm.test(\"Contains 2008\", function () {",
							"    pm.expect(pm.response.text()).to.include(\"2008\");",
							"});",
							"",
							"pm.test(\"Contains 2009\", function () {",
							"    pm.expect(pm.response.text()).to.include(\"2009\");",
							"});",
							"",
							"pm.test(\"Contains 2010\", function () {",
							"    pm.expect(pm.response.text()).to.include(\"2010\");",
							"});",
							"",
							"pm.test(\"Contains 2011\", function () {",
							"    pm.expect(pm.response.text()).to.include(\"2011\");",
							"});",
							"",
							"pm.test(\"Contains 2012\", function () {",
							"    pm.expect(pm.response.text()).to.include(\"2012\");",
							"});"
						],
						"type": "text/javascript"
					}
				}
			],
			"request": {
				"method": "GET",
				"header": [],
				"url": {
					"raw": "https://www.climateconserve.me/api/climate-reports",
					"protocol": "https",
					"host": [
						"www",
						"climateconserve",
						"me"
					],
					"path": [
						"api",
						"climate-reports"
					]
				}
			},
			"response": []
		},
		{
			"name": "GetClimateReportByIDTest",
			"event": [
				{
					"listen": "test",
					"script": {
						"exec": [
							"pm.test(\"Status code is 200\", function () {",
							"    pm.response.to.have.status(200);",
							"});",
							"",
							"pm.test(\"Contains aqi\", function () {",
							"    pm.expect(pm.response.text()).to.include(\"aqi\");",
							"});",
							"",
							"pm.test(\"Contains ch4\", function () {",
							"    pm.expect(pm.response.text()).to.include(\"ch4\");",
							"});",
							"",
							"pm.test(\"Contains climate zone\", function () {",
							"    pm.expect(pm.response.text()).to.include(\"climate_zone\");",
							"});",
							"",
							"pm.test(\"Contains co2\", function () {",
							"    pm.expect(pm.response.text()).to.include(\"co2\");",
							"});",
							"",
							"pm.test(\"Contains ghg\", function () {",
							"    pm.expect(pm.response.text()).to.include(\"ghg\");",
							"});",
							"",
							"pm.test(\"Contains id\", function () {",
							"    pm.expect(pm.response.text()).to.include(\"id\");",
							"});",
							"",
							"pm.test(\"Contains name\", function () {",
							"    pm.expect(pm.response.text()).to.include(\"name\");",
							"});",
							"",
							"pm.test(\"Contains no2\", function () {",
							"    pm.expect(pm.response.text()).to.include(\"no2\");",
							"});",
							"",
							"pm.test(\"Contains pm10\", function () {",
							"    pm.expect(pm.response.text()).to.include(\"pm10\");",
							"});",
							"",
							"pm.test(\"Contains pm25\", function () {",
							"    pm.expect(pm.response.text()).to.include(\"pm25\");",
							"});",
							"",
							"pm.test(\"Contains rainfall\", function () {",
							"    pm.expect(pm.response.text()).to.include(\"rainfall\");",
							"});",
							"",
							"pm.test(\"Contains temperature\", function () {",
							"    pm.expect(pm.response.text()).to.include(\"temperature\");",
							"});",
							"",
							"pm.test(\"Contains 1990\", function () {",
							"    pm.expect(pm.response.text()).to.include(\"1990\");",
							"});",
							"",
							"pm.test(\"Contains 1991\", function () {",
							"    pm.expect(pm.response.text()).to.include(\"1991\");",
							"});",
							"",
							"pm.test(\"Contains 1992\", function () {",
							"    pm.expect(pm.response.text()).to.include(\"1992\");",
							"});",
							"",
							"pm.test(\"Contains 1993\", function () {",
							"    pm.expect(pm.response.text()).to.include(\"1993\");",
							"});",
							"",
							"pm.test(\"Contains 1994\", function () {",
							"    pm.expect(pm.response.text()).to.include(\"1994\");",
							"});",
							"",
							"pm.test(\"Contains 1995\", function () {",
							"    pm.expect(pm.response.text()).to.include(\"1995\");",
							"});",
							"",
							"pm.test(\"Contains 1996\", function () {",
							"    pm.expect(pm.response.text()).to.include(\"1996\");",
							"});",
							"",
							"pm.test(\"Contains 1997\", function () {",
							"    pm.expect(pm.response.text()).to.include(\"1997\");",
							"});",
							"",
							"pm.test(\"Contains 1998\", function () {",
							"    pm.expect(pm.response.text()).to.include(\"1998\");",
							"});",
							"",
							"pm.test(\"Contains 1999\", function () {",
							"    pm.expect(pm.response.text()).to.include(\"1999\");",
							"});",
							"",
							"pm.test(\"Contains 2000\", function () {",
							"    pm.expect(pm.response.text()).to.include(\"2000\");",
							"});",
							"",
							"pm.test(\"Contains 2001\", function () {",
							"    pm.expect(pm.response.text()).to.include(\"2001\");",
							"});",
							"",
							"pm.test(\"Contains 2002\", function () {",
							"    pm.expect(pm.response.text()).to.include(\"2002\");",
							"});",
							"",
							"pm.test(\"Contains 2003\", function () {",
							"    pm.expect(pm.response.text()).to.include(\"2003\");",
							"});",
							"",
							"pm.test(\"Contains 2004\", function () {",
							"    pm.expect(pm.response.text()).to.include(\"2004\");",
							"});",
							"",
							"pm.test(\"Contains 2005\", function () {",
							"    pm.expect(pm.response.text()).to.include(\"2005\");",
							"});",
							"",
							"pm.test(\"Contains 2006\", function () {",
							"    pm.expect(pm.response.text()).to.include(\"2006\");",
							"});",
							"",
							"pm.test(\"Contains 2007\", function () {",
							"    pm.expect(pm.response.text()).to.include(\"2007\");",
							"});",
							"",
							"pm.test(\"Contains 2008\", function () {",
							"    pm.expect(pm.response.text()).to.include(\"2008\");",
							"});",
							"",
							"pm.test(\"Contains 2009\", function () {",
							"    pm.expect(pm.response.text()).to.include(\"2009\");",
							"});",
							"",
							"pm.test(\"Contains 2010\", function () {",
							"    pm.expect(pm.response.text()).to.include(\"2010\");",
							"});",
							"",
							"pm.test(\"Contains 2011\", function () {",
							"    pm.expect(pm.response.text()).to.include(\"2011\");",
							"});",
							"",
							"pm.test(\"Contains 2012\", function () {",
							"    pm.expect(pm.response.text()).to.include(\"2012\");",
							"});",
							"",
							"let jsonData = pm.response.json();",
							"",
							"pm.test(\"Testing ID correctness\", function () {",
							"    pm.expect(jsonData.id).to.eql(59);",
							"});"
						],
						"type": "text/javascript"
					}
				}
			],
			"request": {
				"method": "GET",
				"header": [],
				"url": {
					"raw": "https://www.climateconserve.me/api/climate-report/59",
					"protocol": "https",
					"host": [
						"www",
						"climateconserve",
						"me"
					],
					"path": [
						"api",
						"climate-report",
						"59"
					]
				}
			},
			"response": []
		},
		{
			"name": "GetAllNewsGlobalTest",
			"event": [
				{
					"listen": "test",
					"script": {
						"exec": [
							"pm.test(\"Status code is 200\", function () {",
							"    pm.response.to.have.status(200);",
							"});",
							"",
							"pm.test(\"Contains current page\", function () {",
							"    pm.expect(pm.response.text()).to.include(\"current-page\");",
							"});",
							"",
							"pm.test(\"Contains total articles\", function () {",
							"    pm.expect(pm.response.text()).to.include(\"total-articles\");",
							"});",
							"",
							"pm.test(\"Contains total pages\", function () {",
							"    pm.expect(pm.response.text()).to.include(\"total-pages\");",
							"});",
							"",
							"pm.test(\"Contains article ID\", function () {",
							"    pm.expect(pm.response.text()).to.include(\"article-id\");",
							"});",
							"",
							"pm.test(\"Contains content\", function () {",
							"    pm.expect(pm.response.text()).to.include(\"content\");",
							"});",
							"",
							"pm.test(\"Contains country\", function () {",
							"    pm.expect(pm.response.text()).to.include(\"country\");",
							"});",
							"",
							"pm.test(\"Contains date\", function () {",
							"    pm.expect(pm.response.text()).to.include(\"date\");",
							"});",
							"",
							"pm.test(\"Contains description\", function () {",
							"    pm.expect(pm.response.text()).to.include(\"description\");",
							"});",
							"",
							"pm.test(\"Contains language\", function () {",
							"    pm.expect(pm.response.text()).to.include(\"language\");",
							"});",
							"",
							"pm.test(\"Contains provider\", function () {",
							"    pm.expect(pm.response.text()).to.include(\"provider\");",
							"});",
							"",
							"pm.test(\"Contains thumbnail\", function () {",
							"    pm.expect(pm.response.text()).to.include(\"thumbnail\");",
							"});",
							"",
							"pm.test(\"Contains title\", function () {",
							"    pm.expect(pm.response.text()).to.include(\"title\");",
							"});",
							"",
							"pm.test(\"Contains url\", function () {",
							"    pm.expect(pm.response.text()).to.include(\"url\");",
							"});",
							"",
							"pm.test(\"Contains word_count\", function () {",
							"    pm.expect(pm.response.text()).to.include(\"word_count\");",
							"});"
						],
						"type": "text/javascript"
					}
				}
			],
			"request": {
				"method": "GET",
				"header": [],
				"url": {
					"raw": "https://www.climateconserve.me/api/all-news/1",
					"protocol": "https",
					"host": [
						"www",
						"climateconserve",
						"me"
					],
					"path": [
						"api",
						"all-news",
						"1"
					]
				}
			},
			"response": []
		},
		{
			"name": "GetAllNewsByCountryIDTest",
			"event": [
				{
					"listen": "test",
					"script": {
						"exec": [
							"pm.test(\"Status code is 200\", function () {",
							"    pm.response.to.have.status(200);",
							"});",
							"",
							"pm.test(\"Checks Article ID\", function () {",
							"    pm.expect(pm.response.text()).to.include(\"\");",
							"});",
							"",
							"pm.test(\"Checks content\", function () {",
							"    pm.expect(pm.response.text()).to.include(\"content\");",
							"});",
							"",
							"pm.test(\"Contains country\", function () {",
							"    pm.expect(pm.response.text()).to.include(\"country\");",
							"});",
							"",
							"pm.test(\"Contains date\", function () {",
							"    pm.expect(pm.response.text()).to.include(\"date\");",
							"});",
							"",
							"pm.test(\"Contains description\", function () {",
							"    pm.expect(pm.response.text()).to.include(\"description\");",
							"});",
							"",
							"pm.test(\"Contains language\", function () {",
							"    pm.expect(pm.response.text()).to.include(\"language\");",
							"});",
							"",
							"pm.test(\"Contains provider\", function () {",
							"    pm.expect(pm.response.text()).to.include(\"provider\");",
							"});",
							"",
							"pm.test(\"Contains thumbnail\", function () {",
							"    pm.expect(pm.response.text()).to.include(\"thumbnail\");",
							"});",
							"",
							"pm.test(\"Contains title\", function () {",
							"    pm.expect(pm.response.text()).to.include(\"title\");",
							"});",
							"",
							"pm.test(\"Contains url\", function () {",
							"    pm.expect(pm.response.text()).to.include(\"url\");",
							"});",
							"",
							"pm.test(\"Contains word_count\", function () {",
							"    pm.expect(pm.response.text()).to.include(\"word_count\");",
							"});"
						],
						"type": "text/javascript"
					}
				}
			],
			"request": {
				"method": "GET",
				"header": [],
				"url": {
					"raw": "https://www.climateconserve.me/api/news/1",
					"protocol": "https",
					"host": [
						"www",
						"climateconserve",
						"me"
					],
					"path": [
						"api",
						"news",
						"1"
					]
				}
			},
			"response": []
		},
		{
			"name": "GetNewsByArticleIDTest",
			"event": [
				{
					"listen": "test",
					"script": {
						"exec": [
							"pm.test(\"Status code is 200\", function () {",
							"    pm.response.to.have.status(200);",
							"});",
							"",
							"pm.test(\"Checks Article ID\", function () {",
							"    pm.expect(pm.response.text()).to.include(\"\");",
							"});",
							"",
							"pm.test(\"Checks content\", function () {",
							"    pm.expect(pm.response.text()).to.include(\"content\");",
							"});",
							"",
							"pm.test(\"Contains country\", function () {",
							"    pm.expect(pm.response.text()).to.include(\"country\");",
							"});",
							"",
							"pm.test(\"Contains date\", function () {",
							"    pm.expect(pm.response.text()).to.include(\"date\");",
							"});",
							"",
							"pm.test(\"Contains description\", function () {",
							"    pm.expect(pm.response.text()).to.include(\"description\");",
							"});",
							"",
							"pm.test(\"Contains language\", function () {",
							"    pm.expect(pm.response.text()).to.include(\"language\");",
							"});",
							"",
							"pm.test(\"Contains provider\", function () {",
							"    pm.expect(pm.response.text()).to.include(\"provider\");",
							"});",
							"",
							"pm.test(\"Contains thumbnail\", function () {",
							"    pm.expect(pm.response.text()).to.include(\"thumbnail\");",
							"});",
							"",
							"pm.test(\"Contains title\", function () {",
							"    pm.expect(pm.response.text()).to.include(\"title\");",
							"});",
							"",
							"pm.test(\"Contains url\", function () {",
							"    pm.expect(pm.response.text()).to.include(\"url\");",
							"});",
							"",
							"pm.test(\"Contains word_count\", function () {",
							"    pm.expect(pm.response.text()).to.include(\"word_count\");",
							"});",
							"",
							"pm.test(\"Checks country ID\", function () {",
							"    var jsonData = pm.response.json();",
							"    pm.expect(jsonData.country_id).to.eql(1);",
							"});"
						],
						"type": "text/javascript"
					}
				}
			],
			"request": {
				"method": "GET",
				"header": [],
				"url": {
					"raw": "https://www.climateconserve.me/api/article/1",
					"protocol": "https",
					"host": [
						"www",
						"climateconserve",
						"me"
					],
					"path": [
						"api",
						"article",
						"1"
					]
				}
			},
			"response": []
		}
	]
}