{
    "Afghanistan": {
        "pm10": 8.06,
        "aqi": 1
    },
    "Albania": {
        "pm10": 20.7,
        "aqi": 2
    },
    "Algeria": {
        "pm10": 14.14,
        "aqi": 2
    },
    "Andorra": {
        "pm10": 5.47,
        "aqi": 1
    },
    "Angola": {
        "pm10": 24.66,
        "aqi": 2
    },
    "Antigua and Barbuda": {
        "pm10": 15.59,
        "aqi": 1
    },
    "Argentina": {
        "pm10": 12.69,
        "aqi": 2
    },
    "Armenia": {
        "pm10": 4.75,
        "aqi": 1
    },
    "Australia": {
        "pm10": 1.88,
        "aqi": 1
    },
    "Austria": {
        "pm10": 20.39,
        "aqi": 2
    },
    "Azerbaijan": {
        "pm10": 5.22,
        "aqi": 1
    },
    "Bahamas": {
        "pm10": 25.13,
        "aqi": 2
    },
    "Bahrain": {
        "pm10": 73.64,
        "aqi": 4
    },
    "Bangladesh": {
        "pm10": 237.81,
        "aqi": 5
    },
    "Barbados": {
        "pm10": 17.9,
        "aqi": 1
    },
    "Belarus": {
        "pm10": 7.19,
        "aqi": 1
    },
    "Belgium": {
        "pm10": 16.53,
        "aqi": 2
    },
    "Belize": {
        "pm10": 13.54,
        "aqi": 1
    },
    "Benin": {
        "pm10": 5.63,
        "aqi": 1
    },
    "Bhutan": {
        "pm10": 19.72,
        "aqi": 2
    },
    "Bolivia": {
        "pm10": 4.9,
        "aqi": 1
    },
    "Bosnia and Herzegovina": {
        "pm10": 10.17,
        "aqi": 1
    },
    "Botswana": {
        "pm10": 41.9,
        "aqi": 3
    },
    "Brazil": {
        "pm10": 3.48,
        "aqi": 1
    },
    "Brunei": {
        "pm10": 3.08,
        "aqi": 1
    },
    "Bulgaria": {
        "pm10": 33.58,
        "aqi": 3
    },
    "Burkina Faso": {
        "pm10": 105.94,
        "aqi": 5
    },
    "Burundi": {
        "pm10": 28.79,
        "aqi": 3
    },
    "Cambodia": {
        "pm10": 28.86,
        "aqi": 2
    },
    "Cameroon": {
        "pm10": 4.32,
        "aqi": 1
    },
    "Canada": {
        "pm10": 7.45,
        "aqi": 2
    },
    "Cape Verde": {
        "pm10": 264.38,
        "aqi": 5
    },
    "Central African Republic": {
        "pm10": 14.63,
        "aqi": 2
    },
    "Chad": {
        "pm10": 92.54,
        "aqi": 4
    },
    "Chile": {
        "pm10": 42.4,
        "aqi": 4
    },
    "China": {
        "pm10": 341.14,
        "aqi": 5
    },
    "Colombia": {
        "pm10": 45.76,
        "aqi": 4
    },
    "Comoros": {
        "pm10": 18.74,
        "aqi": 1
    },
    "Congo (Democratic Republic of the)": {
        "pm10": 440.99,
        "aqi": 5
    },
    "Congo (Republic of the)": {
        "pm10": 318.99,
        "aqi": 5
    },
    "Costa Rica": {
        "pm10": 2.96,
        "aqi": 1
    },
    "Cote d'Ivoire": {
        "pm10": 59.36,
        "aqi": 4
    },
    "Croatia": {
        "pm10": 39.24,
        "aqi": 4
    },
    "Cuba": {
        "pm10": 10.66,
        "aqi": 1
    },
    "Cyprus": {
        "pm10": 17.23,
        "aqi": 2
    },
    "Czech Republic": {
        "pm10": 31.1,
        "aqi": 4
    },
    "Denmark": {
        "pm10": 13.08,
        "aqi": 2
    },
    "Djibouti": {
        "pm10": 9.43,
        "aqi": 1
    },
    "Dominica": {
        "pm10": 9.66,
        "aqi": 1
    },
    "Dominican Republic": {
        "pm10": 4.82,
        "aqi": 1
    },
    "Ecuador": {
        "pm10": 16.1,
        "aqi": 2
    },
    "Egypt": {
        "pm10": 45.02,
        "aqi": 3
    },
    "El Salvador": {
        "pm10": 61.27,
        "aqi": 4
    },
    "Equatorial Guinea": {
        "pm10": 1.6,
        "aqi": 1
    },
    "Eritrea": {
        "pm10": 59.77,
        "aqi": 4
    },
    "Estonia": {
        "pm10": 8.43,
        "aqi": 1
    },
    "Ethiopia": {
        "pm10": 447.2,
        "aqi": 5
    },
    "Faroe Islands": {
        "pm10": 2.21,
        "aqi": 1
    },
    "Federated States of Micronesia": {
        "pm10": 14.77,
        "aqi": 1
    },
    "Fiji": {
        "pm10": 3.5,
        "aqi": 1
    },
    "Finland": {
        "pm10": 24.12,
        "aqi": 3
    },
    "France": {
        "pm10": 16.48,
        "aqi": 2
    },
    "Gabon": {
        "pm10": 3.63,
        "aqi": 1
    },
    "Gambia": {
        "pm10": 462.93,
        "aqi": 5
    },
    "Georgia": {
        "pm10": 27.92,
        "aqi": 3
    },
    "Germany": {
        "pm10": 17.04,
        "aqi": 2
    },
    "Ghana": {
        "pm10": 14.7,
        "aqi": 1
    },
    "Greece": {
        "pm10": 7.59,
        "aqi": 1
    },
    "Greenland": {
        "pm10": 0.5,
        "aqi": 2
    },
    "Grenada": {
        "pm10": 16.57,
        "aqi": 1
    },
    "Guatemala": {
        "pm10": 42.5,
        "aqi": 4
    },
    "Guinea": {
        "pm10": 58.09,
        "aqi": 4
    },
    "Guinea-Bissau": {
        "pm10": 168.33,
        "aqi": 5
    },
    "Guyana": {
        "pm10": 6.03,
        "aqi": 1
    },
    "Haiti": {
        "pm10": 18.24,
        "aqi": 1
    },
    "Honduras": {
        "pm10": 2.91,
        "aqi": 1
    },
    "Hungary": {
        "pm10": 39.11,
        "aqi": 4
    },
    "Iceland": {
        "pm10": 4.17,
        "aqi": 2
    },
    "India": {
        "pm10": 411.73,
        "aqi": 5
    },
    "Indonesia": {
        "pm10": 101.61,
        "aqi": 5
    },
    "Iran": {
        "pm10": 22.89,
        "aqi": 3
    },
    "Iraq": {
        "pm10": 51.31,
        "aqi": 4
    },
    "Ireland": {
        "pm10": 1.22,
        "aqi": 1
    },
    "Israel": {
        "pm10": 35.78,
        "aqi": 3
    },
    "Italy": {
        "pm10": 71.18,
        "aqi": 5
    },
    "Jamaica": {
        "pm10": 15.58,
        "aqi": 1
    },
    "Japan": {
        "pm10": 6.92,
        "aqi": 2
    },
    "Jordan": {
        "pm10": 58.71,
        "aqi": 4
    },
    "Kazakhstan": {
        "pm10": 10.22,
        "aqi": 1
    },
    "Kenya": {
        "pm10": 28.55,
        "aqi": 2
    },
    "Kiribati": {
        "pm10": 19.05,
        "aqi": 1
    },
    "Korea": {
        "pm10": 138.93,
        "aqi": 5
    },
    "Kuwait": {
        "pm10": 104.15,
        "aqi": 5
    },
    "Laos": {
        "pm10": 26.69,
        "aqi": 3
    },
    "Latvia": {
        "pm10": 3.36,
        "aqi": 1
    },
    "Lebanon": {
        "pm10": 35.05,
        "aqi": 4
    },
    "Lesotho": {
        "pm10": 14.99,
        "aqi": 1
    },
    "Liberia": {
        "pm10": 13.72,
        "aqi": 1
    },
    "Libya": {
        "pm10": 7.8,
        "aqi": 1
    },
    "Liechtenstein": {
        "pm10": 16.31,
        "aqi": 2
    },
    "Lithuania": {
        "pm10": 4.54,
        "aqi": 1
    },
    "Luxembourg": {
        "pm10": 24.91,
        "aqi": 3
    },
    "Macedonia": {
        "pm10": 42.87,
        "aqi": 4
    },
    "Madagascar": {
        "pm10": 7.58,
        "aqi": 1
    },
    "Malawi": {
        "pm10": 7.61,
        "aqi": 1
    },
    "Malaysia": {
        "pm10": 199.48,
        "aqi": 5
    },
    "Maldives": {
        "pm10": 14.75,
        "aqi": 2
    },
    "Mali": {
        "pm10": 180.33,
        "aqi": 5
    },
    "Malta": {
        "pm10": 4.55,
        "aqi": 1
    },
    "Marshall Islands": {
        "pm10": 5.44,
        "aqi": 1
    },
    "Mauritania": {
        "pm10": 1628.8,
        "aqi": 5
    },
    "Mauritius": {
        "pm10": 12.6,
        "aqi": 1
    },
    "Mexico": {
        "pm10": 60.59,
        "aqi": 4
    },
    "Moldova": {
        "pm10": 5.02,
        "aqi": 1
    },
    "Monaco": {
        "pm10": 9.74,
        "aqi": 1
    },
    "Mongolia": {
        "pm10": 34.84,
        "aqi": 4
    },
    "Morocco": {
        "pm10": 24.48,
        "aqi": 2
    },
    "Mozambique": {
        "pm10": 7.12,
        "aqi": 1
    },
    "Myanmar": {
        "pm10": 50.44,
        "aqi": 4
    },
    "Namibia": {
        "pm10": 50.5,
        "aqi": 4
    },
    "Nepal": {
        "pm10": 606.92,
        "aqi": 5
    },
    "Netherlands": {
        "pm10": 13.81,
        "aqi": 2
    },
    "New Caledonia": {
        "pm10": 6.16,
        "aqi": 1
    },
    "New Zealand": {
        "pm10": 0.52,
        "aqi": 1
    },
    "Nicaragua": {
        "pm10": 1.08,
        "aqi": 1
    },
    "Niger": {
        "pm10": 113.28,
        "aqi": 5
    },
    "Nigeria": {
        "pm10": 166.4,
        "aqi": 5
    },
    "Northern Mariana Islands": {
        "pm10": 19.65,
        "aqi": 1
    },
    "Norway": {
        "pm10": 1.57,
        "aqi": 1
    },
    "Oman": {
        "pm10": 115.85,
        "aqi": 5
    },
    "Pakistan": {
        "pm10": 74.52,
        "aqi": 5
    },
    "Palau": {
        "pm10": 1.01,
        "aqi": 1
    },
    "Panama": {
        "pm10": 8.44,
        "aqi": 1
    },
    "Papua New Guinea": {
        "pm10": 4.73,
        "aqi": 1
    },
    "Paraguay": {
        "pm10": 29.09,
        "aqi": 3
    },
    "Peru": {
        "pm10": 29.13,
        "aqi": 2
    },
    "Philippines": {
        "pm10": 38.9,
        "aqi": 3
    },
    "Poland": {
        "pm10": 22.68,
        "aqi": 2
    },
    "Portugal": {
        "pm10": 5.31,
        "aqi": 2
    },
    "Puerto Rico": {
        "pm10": 5.09,
        "aqi": 1
    },
    "Qatar": {
        "pm10": 94.71,
        "aqi": 4
    },
    "Montenegro": {
        "pm10": 18.22,
        "aqi": 2
    },
    "Serbia": {
        "pm10": 41.24,
        "aqi": 4
    },
    "Romania": {
        "pm10": 38.22,
        "aqi": 4
    },
    "Russia": {
        "pm10": 2.76,
        "aqi": 1
    },
    "Rwanda": {
        "pm10": 32.34,
        "aqi": 3
    },
    "Samoa": {
        "pm10": 7.91,
        "aqi": 1
    },
    "Sao Tome and Principe": {
        "pm10": 5.06,
        "aqi": 1
    },
    "Saudi Arabia": {
        "pm10": 83.76,
        "aqi": 4
    },
    "Senegal": {
        "pm10": 634.25,
        "aqi": 5
    },
    "Seychelles": {
        "pm10": 2.63,
        "aqi": 1
    },
    "Sierra Leone": {
        "pm10": 12.83,
        "aqi": 1
    },
    "Singapore": {
        "pm10": 23.27,
        "aqi": 2
    },
    "Slovakia": {
        "pm10": 25.75,
        "aqi": 3
    },
    "Slovenia": {
        "pm10": 42.65,
        "aqi": 4
    },
    "Solomon Islands": {
        "pm10": 0.54,
        "aqi": 1
    },
    "Somalia": {
        "pm10": 5.79,
        "aqi": 1
    },
    "South Africa": {
        "pm10": 27.29,
        "aqi": 2
    },
    "South Sudan": {
        "pm10": 21.58,
        "aqi": 2
    },
    "Spain": {
        "pm10": 62.43,
        "aqi": 5
    },
    "Sri Lanka": {
        "pm10": 21.55,
        "aqi": 3
    },
    "St. Kitts and Nevis": {
        "pm10": 15.54,
        "aqi": 1
    },
    "St. Lucia": {
        "pm10": 11.69,
        "aqi": 1
    },
    "St. Vincent and the Grenadines": {
        "pm10": 11.64,
        "aqi": 1
    },
    "Sudan": {
        "pm10": 155.53,
        "aqi": 5
    },
    "Suriname": {
        "pm10": 9.17,
        "aqi": 1
    },
    "Sweden": {
        "pm10": 3.94,
        "aqi": 1
    },
    "Switzerland": {
        "pm10": 47.69,
        "aqi": 4
    },
    "Syria": {
        "pm10": 26.15,
        "aqi": 2
    },
    "Tajikistan": {
        "pm10": 4.79,
        "aqi": 2
    },
    "Tanzania": {
        "pm10": 5.6,
        "aqi": 1
    },
    "Thailand": {
        "pm10": 127.34,
        "aqi": 5
    },
    "Timor Leste": {
        "pm10": 1.79,
        "aqi": 1
    },
    "Togo": {
        "pm10": 12.13,
        "aqi": 1
    },
    "Tonga": {
        "pm10": 6.4,
        "aqi": 1
    },
    "Trinidad and Tobago": {
        "pm10": 7.24,
        "aqi": 1
    },
    "Tunisia": {
        "pm10": 37.7,
        "aqi": 4
    },
    "Turkey": {
        "pm10": 18.54,
        "aqi": 2
    },
    "Turkmenistan": {
        "pm10": 12.13,
        "aqi": 2
    },
    "Tuvalu": {
        "pm10": 2.86,
        "aqi": 1
    },
    "Uganda": {
        "pm10": 355.42,
        "aqi": 5
    },
    "Ukraine": {
        "pm10": 5.08,
        "aqi": 1
    },
    "United Arab Emirates": {
        "pm10": 45.75,
        "aqi": 3
    },
    "United Kingdom": {
        "pm10": 6.12,
        "aqi": 1
    },
    "United States": {
        "pm10": 17.4,
        "aqi": 2
    },
    "Uruguay": {
        "pm10": 19.26,
        "aqi": 1
    },
    "Uzbekistan": {
        "pm10": 20.61,
        "aqi": 2
    },
    "Vanuatu": {
        "pm10": 2.89,
        "aqi": 1
    },
    "Venezuela": {
        "pm10": 3.99,
        "aqi": 1
    },
    "Vietnam": {
        "pm10": 295.95,
        "aqi": 5
    },
    "Yemen": {
        "pm10": 118.44,
        "aqi": 5
    },
    "Zambia": {
        "pm10": 12.93,
        "aqi": 1
    },
    "Zimbabwe": {
        "pm10": 48.6,
        "aqi": 4
    }
}